<svg width="327" height="50" viewBox="0 0 327 50" fill="none" xmlns="http://www.w3.org/2000/svg">
<mask id="mask0_86_490" style="mask-type:alpha" maskUnits="userSpaceOnUse" x="0" y="0" width="327" height="50">
<rect width="327" height="50" rx="10" fill="#E5EEFB"/>
</mask>
<g mask="url(#mask0_86_490)">
<path opacity="0.3" d="M0 50V25C0 25 24 32.2917 42 37.5C60 42.7083 81 31.7708 105 31.7708C129 31.7708 153.487 47.9167 165.986 42.7083C178.485 37.5 184.362 28.6875 206.482 28.125C227.686 27.5858 250.979 45.6597 265.977 45.6597C280.976 45.6597 290.475 25 309.474 25C328.472 25 326.972 50 326.972 50H0Z" fill="white"/>
<g opacity="0.3" filter="url(#filter0_d_86_490)">
<path d="M327 50V25C327 25 303 32.2917 285 37.5C267 42.7083 246 31.7708 222 31.7708C198 31.7708 173.513 47.9167 161.014 42.7083C148.515 37.5 142.638 28.6875 120.518 28.125C99.3142 27.5858 76.0213 45.6597 61.0226 45.6597C46.024 45.6597 36.5247 25 17.5263 25C-1.47205 25 0.027894 50 0.027894 50H327Z" fill="white"/>
</g>
</g>
<defs>
<filter id="filter0_d_86_490" x="-5" y="22" width="337" height="35" filterUnits="userSpaceOnUse" color-interpolation-filters="sRGB">
<feFlood flood-opacity="0" result="BackgroundImageFix"/>
<feColorMatrix in="SourceAlpha" type="matrix" values="0 0 0 0 0 0 0 0 0 0 0 0 0 0 0 0 0 0 127 0" result="hardAlpha"/>
<feOffset dy="2"/>
<feGaussianBlur stdDeviation="2.5"/>
<feComposite in2="hardAlpha" operator="out"/>
<feColorMatrix type="matrix" values="0 0 0 0 0 0 0 0 0 0 0 0 0 0 0 0 0 0 0.2 0"/>
<feBlend mode="normal" in2="BackgroundImageFix" result="effect1_dropShadow_86_490"/>
<feBlend mode="normal" in="SourceGraphic" in2="effect1_dropShadow_86_490" result="shape"/>
</filter>
</defs>
</svg>
