<svg width="14" height="16" viewBox="0 0 14 16" fill="none" xmlns="http://www.w3.org/2000/svg">
<path fill-rule="evenodd" clip-rule="evenodd" d="M12.5 2H11V0.375C11 0.167906 10.8321 0 10.625 0H10.375C10.1679 0 10 0.167906 10 0.375V2H4V0.375C4 0.167906 3.83209 0 3.625 0H3.375C3.16791 0 3 0.167906 3 0.375V2H1.5C0.671562 2 0 2.67156 0 3.5V14.5C0 15.3284 0.671562 16 1.5 16H12.5C13.3284 16 14 15.3284 14 14.5V3.5C14 2.67156 13.3284 2 12.5 2ZM1.5 3H12.5C12.7757 3 13 3.22431 13 3.5V5H1V3.5C1 3.22431 1.22431 3 1.5 3ZM1.5 15H12.5C12.7757 15 13 14.7757 13 14.5V6H1V14.5C1 14.7757 1.22431 15 1.5 15Z" fill="#2B4B7E"/>
</svg>
