<svg width="16" height="16" viewBox="0 0 16 16" fill="none" xmlns="http://www.w3.org/2000/svg">
<path d="M12.3585 2.85284C11.7537 2.24908 10.7742 2.24908 10.1694 2.85284L9.62145 3.40382L3.78832 9.23385L3.77592 9.24634C3.77292 9.24934 3.77292 9.25254 3.76972 9.25254C3.76352 9.26184 3.75423 9.27104 3.74812 9.28033C3.74812 9.28343 3.74493 9.28343 3.74493 9.28653C3.73873 9.29583 3.73573 9.30203 3.72943 9.31133C3.72643 9.31443 3.72643 9.31743 3.72333 9.32062C3.72023 9.32992 3.71713 9.33612 3.71394 9.34542C3.71394 9.34842 3.71093 9.34842 3.71093 9.35162L2.41674 13.2434C2.37877 13.3542 2.40763 13.4769 2.49102 13.5591C2.54962 13.617 2.62864 13.6493 2.71087 13.649C2.74448 13.6484 2.77779 13.6432 2.80995 13.6335L6.69873 12.3362C6.70173 12.3362 6.70173 12.3362 6.70493 12.3332C6.71471 12.3303 6.72411 12.3261 6.73273 12.3207C6.73515 12.3204 6.73728 12.3194 6.73902 12.3177C6.74822 12.3115 6.76062 12.3052 6.76992 12.299C6.77912 12.2929 6.78851 12.2836 6.79781 12.2774C6.80091 12.2742 6.80391 12.2742 6.80391 12.2712C6.80711 12.2681 6.8133 12.2651 6.8164 12.2588L13.1975 5.87773C13.8013 5.27291 13.8013 4.29347 13.1975 3.68875L12.3585 2.85284ZM6.59965 11.6086L4.44476 9.45379L9.83819 4.06036L11.9931 6.21516L6.59965 11.6086ZM4.14123 10.0266L6.02379 11.909L3.19696 12.8502L4.14123 10.0266ZM12.761 5.44424L12.4328 5.77556L10.2778 3.62057L10.6092 3.28934C10.9717 2.92713 11.5593 2.92713 11.9219 3.28934L12.764 4.13145C13.1238 4.4956 13.1224 5.08183 12.761 5.44424Z" fill="#205AC4"/>
</svg>
