<svg width="17" height="20" viewBox="0 0 17 20" fill="none" xmlns="http://www.w3.org/2000/svg">
<path fill-rule="evenodd" clip-rule="evenodd" d="M11.158 8.29392C10.2589 9.19304 9.15879 9.64875 7.88818 9.64875C6.61787 9.64875 5.51777 9.19289 4.61851 8.29407C3.71953 7.39509 3.26367 6.29499 3.26367 5.02424C3.26367 3.75378 3.71953 2.65369 4.61851 1.75471C5.51748 0.855737 6.61743 0.400024 7.88818 0.400024C9.15864 0.400024 10.2587 0.855737 11.1579 1.75457C12.057 2.65383 12.5127 3.75393 12.5127 5.02424C12.5127 6.29499 12.0568 7.39495 11.158 8.29392ZM7.88818 1.52517C6.91318 1.52517 6.104 1.86047 5.41421 2.55027C4.72427 3.24021 4.38882 4.04954 4.38882 5.02424C4.38882 5.99924 4.72427 6.80857 5.41421 7.49836C6.1043 8.18816 6.91348 8.52361 7.88818 8.52361C8.86304 8.52361 9.67236 8.18831 10.3623 7.49836C11.0521 6.80842 11.3875 5.99924 11.3875 5.02424C11.3875 4.04954 11.0521 3.24021 10.3623 2.55027C9.67236 1.86047 8.86304 1.52517 7.88818 1.52517ZM15.8243 13.9507C15.9015 14.3816 15.9539 14.7897 15.9798 15.1638C16.0055 15.5295 16.0185 15.9111 16.0187 16.2979C16.0187 17.3005 15.7001 18.1121 15.0716 18.7101C14.451 19.3006 13.6301 19.6 12.6318 19.6H3.38687C2.38828 19.6 1.56738 19.3006 0.946875 18.7101C0.318604 18.1117 0 17.3003 0 16.2981C0 15.9125 0.0128906 15.5309 0.0383789 15.1643C0.0643067 14.7893 0.116602 14.381 0.193945 13.9507C0.271875 13.5165 0.372217 13.1062 0.492188 12.731C0.616406 12.343 0.785156 11.9602 0.993604 11.5933C1.20981 11.2126 1.46411 10.8811 1.74946 10.608C2.04814 10.3222 2.41362 10.0927 2.83579 9.92555C3.25664 9.75885 3.72305 9.67433 4.22227 9.67433C4.41826 9.67433 4.60781 9.75475 4.97358 9.99308C5.20225 10.1421 5.46592 10.312 5.75728 10.4982C6.00835 10.6584 6.34922 10.8086 6.76963 10.9444C7.18052 11.0772 7.59741 11.1446 8.00874 11.1446C8.42036 11.1446 8.83726 11.0772 9.24785 10.9444C9.6687 10.8084 10.0094 10.6583 10.2609 10.498C10.5551 10.3101 10.8186 10.1402 11.0439 9.99323C11.41 9.7549 11.5995 9.67448 11.7955 9.67448C12.2946 9.67448 12.7611 9.75885 13.1821 9.92541C13.6046 10.0928 13.9699 10.3224 14.2683 10.6079C14.5537 10.8808 14.808 11.2124 15.0243 11.5933C15.2331 11.9602 15.4017 12.3431 15.5259 12.7309C15.646 13.106 15.7463 13.5165 15.8243 13.9507ZM12.6316 18.4748C13.3415 18.4748 13.8858 18.2851 14.2959 17.8949C14.698 17.5123 14.8934 16.9899 14.8935 16.2981C14.8934 15.9373 14.8813 15.5822 14.8575 15.2425V15.2422C14.8343 14.9082 14.7869 14.5405 14.7168 14.1493C14.6477 13.7639 14.5594 13.4021 14.4543 13.0739C14.3539 12.76 14.2165 12.4487 14.0461 12.1492C13.8836 11.8632 13.6967 11.6182 13.4905 11.4209C13.2976 11.2363 13.0544 11.085 12.768 10.9716C12.5029 10.8667 12.2051 10.8093 11.8816 10.8007C11.8422 10.8216 11.7721 10.8617 11.6584 10.9357C11.4271 11.0866 11.168 11.2536 10.8664 11.4464C10.5337 11.6585 10.1058 11.8496 9.594 12.015C9.07149 12.1839 8.53814 12.2697 8.00889 12.2697C7.47964 12.2697 6.94644 12.1839 6.42363 12.0149C5.91226 11.8498 5.48423 11.6585 5.152 11.4466C4.85728 11.2584 4.59067 11.0864 4.35938 10.9357C4.2457 10.8616 4.17554 10.8216 4.13613 10.8007C3.81284 10.8093 3.51504 10.8667 3.25005 10.9716C2.96353 11.085 2.72036 11.2361 2.52744 11.4209C2.32119 11.6183 2.13428 11.8634 1.97183 12.149C1.80161 12.4487 1.66436 12.7599 1.56372 13.0741C1.45884 13.4018 1.37065 13.7637 1.30137 14.1494C1.2312 14.54 1.18389 14.9075 1.16074 15.2421C1.13701 15.5831 1.12515 15.9383 1.12515 16.2981C1.12515 16.9898 1.32056 17.5123 1.72266 17.895C2.13252 18.2851 2.67686 18.4748 3.38687 18.4748H12.6316Z" fill="#808CAD"/>
</svg>
