<svg width="12" height="12" viewBox="0 0 12 12" xmlns="http://www.w3.org/2000/svg">
<rect width="12" height="12" rx="6"/>
<path d="M3.59998 6.44485L5.3032 7.92521L8.39997 4.8" stroke="white" stroke-linecap="round" stroke-linejoin="round"/>
</svg>
